{
  "name"    : "fullcalendar",

  "include" :
  [
    {
      "path" : "${QOOXDOO_PATH}/tool/data/config/application.json"
    }
  ],

  "export" :
  [
    "api",
    "api-data",
    "clean",
    "distclean",
    "dependencies",
    "fix",
    "info",
    "inspector",
    "lint",
    "migration",
    "pretty",
    "test",
    "test-source",
    "translation"
  ],

  "let" :
  {
    "APPLICATION"  : "fullcalendar",
    "APPLICATION_MAIN_CLASS" : "${APPLICATION}.demo.Demo",
    "QOOXDOO_PATH" : "../..",
    //"QXTHEME"      : "fullcalendar.theme.modern.Theme",
    "QXTHEME"      : "qx.theme.Modern",
    "API_EXCLUDE"  : ["qx.test.*", "fullcalendar.demo.*", "${APPLICATION}.theme.*", "${APPLICATION}.test.*"],
    "LOCALES"      : [ "en" ],
    "CACHE"        : "${TMPDIR}/qx${QOOXDOO_VERSION}/cache",
    "ROOT"         : "."
  },

  // You only need to edit the remainder of this file, if you want to customize
  // specific jobs, or add own job definitions.

  "jobs" :
  {
    // Uncomment the following entry to add a contrib or library to your
    // project; make sure to adapt the path to the Manifest.json; if you are
    // using a contrib: library, it will be downloaded into the path specified
    // by the 'cache/downloads' config key

    "libraries" :
    {
      "library" :
      [
        {
          "manifest" : "../dynLoadFiles/trunk/Manifest.json"
        }
      ]
    }


    // If you want to tweak a job setting, see the following sample where
    // the "format" feature of the "build-script" job is overridden.
    // To see a list of available jobs, invoke 'generate.py x'.
    /*
    ,"build-script" :
    {
      "compile-options" :
      {
        "code" :
        {
          "format" : false
        }
      }
    }
    */
  }
}
